[{
  "id": 1,
  "fecha": "10/21/2019",
  "importe": 27,
  "latitud": 34.2904302,
  "longitud": 113.3823545
}, {
  "id": 2,
  "fecha": "10/23/2019",
  "importe": 96,
  "latitud": 34.760249,
  "longitud": 119.338788
}, {
  "id": 3,
  "fecha": "4/11/2020",
  "importe": 28,
  "latitud": 31.857513,
  "longitud": 120.507721
}, {
  "id": 4,
  "fecha": "9/10/2019",
  "importe": 30,
  "latitud": -6.9738,
  "longitud": 112.8045
}, {
  "id": 5,
  "fecha": "4/6/2020",
  "importe": 24,
  "latitud": -20.94333,
  "longitud": 55.327338
}, {
  "id": 6,
  "fecha": "9/6/2019",
  "importe": 7,
  "latitud": 38.7015108,
  "longitud": -9.2848171
}, {
  "id": 7,
  "fecha": "6/25/2020",
  "importe": 72,
  "latitud": 42.4938831,
  "longitud": 42.1102682
}, {
  "id": 8,
  "fecha": "12/29/2019",
  "importe": 89,
  "latitud": 53.3004898,
  "longitud": -6.2634596
}, {
  "id": 9,
  "fecha": "11/16/2019",
  "importe": 62,
  "latitud": -6.8666512,
  "longitud": -78.1421905
}, {
  "id": 10,
  "fecha": "11/24/2019",
  "importe": 95,
  "latitud": 49.9833601,
  "longitud": 18.0435047
}]
